* source SCHEME6
U_DSTM8         STIM(1,0) $G_DPWR $G_DGND C2 IO_STM STIMULUS=C2
U_DSTM1         STIM(1,1) $G_DPWR $G_DGND C IO_STM IO_LEVEL=0 
+ 0 0
+ +250ns 1
+REPEAT FOREVER
+ +250ns 0
+  +250ns 1
+ ENDREPEAT
U_DSTM4         STIM(1,0) $G_DPWR $G_DGND D1 IO_STM STIMULUS=D1
U_DSTM5         STIM(1,0) $G_DPWR $G_DGND D0 IO_STM STIMULUS=D0
X_DD7A         R N33227 N37593 N41515 T1 M_UN0001 $G_DPWR $G_DGND 74ALS74A
+  PARAMS:
+ IO_LEVEL=0 MNTYMXDLY=0
U_DSTM2         STIM(1,0) $G_DPWR $G_DGND 1 IO_STM STIMULUS=1
X_DD14B         R D0 N30330 1 N31152 M_UN0002 $G_DPWR $G_DGND 74ALS74A PARAMS:
+ IO_LEVEL=0 MNTYMXDLY=0
U_DSTM6         STIM(1,0) $G_DPWR $G_DGND R IO_STM STIMULUS=R
U_DSTM3         STIM(1,0) $G_DPWR $G_DGND C1 IO_STM STIMULUS=C1
X_DD6A         R D1 N30330 1 N30088 M_UN0003 $G_DPWR $G_DGND 74ALS74A PARAMS:
+ IO_LEVEL=0 MNTYMXDLY=0
X_DD8A         C1 N30330 $G_DPWR $G_DGND 74ALS04B PARAMS:
+ IO_LEVEL=0 MNTYMXDLY=0
X_DD21A         N30088 N31152 N33227 $G_DPWR $G_DGND 74ALS08 PARAMS:
+ IO_LEVEL=0 MNTYMXDLY=0
X_DD22A         C2 N33398 $G_DPWR $G_DGND 74ALS04B PARAMS:
+ IO_LEVEL=0 MNTYMXDLY=0
X_DD23A         N30088 N33398 N41515 $G_DPWR $G_DGND 74ALS00A PARAMS:
+ IO_LEVEL=0 MNTYMXDLY=0
X_DD24A         N35866 N30088 T1 N34085 T2 N38440 $G_DPWR $G_DGND 74ALS74A
+  PARAMS:
+ IO_LEVEL=0 MNTYMXDLY=0
X_DD25A         N34053 N33227 N34085 $G_DPWR $G_DGND 74ALS00A PARAMS:
+ IO_LEVEL=0 MNTYMXDLY=0
X_DD26A         N37593 N34053 $G_DPWR $G_DGND 74ALS04B PARAMS:
+ IO_LEVEL=0 MNTYMXDLY=0
X_DD27         C T1 S1 S0 Z5 0 0 0 T2 0 Z1 Z2 Z3 Z4 $G_DPWR $G_DGND 74LS194A
+  PARAMS:
+ IO_LEVEL=0 MNTYMXDLY=0
X_DD28         C T1 S1 S0 0 Z4 0 0 0 0 Z5 Z6 M_UN0004 M_UN0005 $G_DPWR $G_DGND
+  74LS194A PARAMS:
+ IO_LEVEL=0 MNTYMXDLY=0
X_DD29A         A0 N37593 N38440 S0 $G_DPWR $G_DGND 74ALS10A PARAMS:
+ IO_LEVEL=0 MNTYMXDLY=0
X_DD29B         N38440 N37593 NA0 S1 $G_DPWR $G_DGND 74ALS10A PARAMS:
+ IO_LEVEL=0 MNTYMXDLY=0
X_DD30A         R NZ N35866 $G_DPWR $G_DGND 74ALS08 PARAMS:
+ IO_LEVEL=0 MNTYMXDLY=0
X_DD31         0 A0 A1 A2 Z5 Z2 Z2 Z2 Z2 Z2 0 0 N37373 M_UN0006 $G_DPWR $G_DGND
+  74ALS151 PARAMS:
+ IO_LEVEL=0 MNTYMXDLY=0
X_DD32         C N37373 N37373 T1 N37593 0 0 0 0 A0 A1 A2 M_UN0007 M_UN0008
+  $G_DPWR $G_DGND 74ALS161B PARAMS:
+ IO_LEVEL=0 MNTYMXDLY=0
X_DD33A         A0 NA0 $G_DPWR $G_DGND 74ALS04B PARAMS:
+ IO_LEVEL=0 MNTYMXDLY=0
X_DD33B         C N37493 $G_DPWR $G_DGND 74ALS04B PARAMS:
+ IO_LEVEL=0 MNTYMXDLY=0
X_DD34A         Z2 N37493 N37466 N37593 $G_DPWR $G_DGND 74ALS10A PARAMS:
+ IO_LEVEL=0 MNTYMXDLY=0
X_DD35A         A1 A2 N37466 $G_DPWR $G_DGND 74ALS08 PARAMS:
+ IO_LEVEL=0 MNTYMXDLY=0
X_DD36A         Z3 NZ $G_DPWR $G_DGND 74ALS04B PARAMS:
+ IO_LEVEL=0 MNTYMXDLY=0
U_DSTM9         STIM(1,0) $G_DPWR $G_DGND 0 IO_STM STIMULUS=0
