<?xml version="1.0" standalone="no"?>
<!DOCTYPE svg PUBLIC "-//W3C//DTD SVG 1.1//EN"
    "http://www.w3.org/Graphics/SVG/1.1/DTD/svg11.dtd">
<svg width="210.000000mm" height="297.000000mm" viewBox="0 0 210.000000 297.000000" version="1.1"
    xmlns="http://www.w3.org/2000/svg">
    <g>
        <rect x="20.000000" y="5.000000" width="185.000000" height="287.000000" fill="none" stroke="black" stroke-width="0.8" />
        <text x="180.000000" y="295.930517" style="text-align:center;text-anchor:middle" font-family="GOST type A" font-size="3.760087" font-style="italic" fill="black">Формат A4</text>
    </g>
    <g>
        <rect x="20.000000" y="277.000000" width="185.000000" height="15.000000" fill="none" stroke="black" stroke-width="0.8" />
        <line x1="20.000000" y1="287.000000" x2="85.000000" y2="287.000000" stroke="black" stroke-width="0.8" />
        <line x1="195.000000" y1="284.000000" x2="205.000000" y2="284.000000" stroke="black" stroke-width="0.8" />
        <line x1="27.000000" y1="277.000000" x2="27.000000" y2="292.000000" stroke="black" stroke-width="0.8" />
        <line x1="37.000000" y1="277.000000" x2="37.000000" y2="292.000000" stroke="black" stroke-width="0.8" />
        <line x1="60.000000" y1="277.000000" x2="60.000000" y2="292.000000" stroke="black" stroke-width="0.8" />
        <line x1="75.000000" y1="277.000000" x2="75.000000" y2="292.000000" stroke="black" stroke-width="0.8" />
        <line x1="85.000000" y1="277.000000" x2="85.000000" y2="292.000000" stroke="black" stroke-width="0.8" />
        <line x1="195.000000" y1="277.000000" x2="195.000000" y2="292.000000" stroke="black" stroke-width="0.8" />
        <line x1="20.000000" y1="282.000000" x2="85.000000" y2="282.000000" stroke="black" stroke-width="0.3" />
        <text x="21.000000" y="290.930517" style="text-align:start;text-anchor:start" font-family="GOST type A" font-size="3.760087" font-style="italic" fill="black">Изм.</text>
        <text x="28.000000" y="290.930517" style="text-align:start;text-anchor:start" font-family="GOST type A" font-size="3.760087" font-style="italic" fill="black">Лист</text>
        <text x="38.000000" y="290.930517" style="text-align:start;text-anchor:start" font-family="GOST type A" font-size="3.760087" font-style="italic" fill="black">№ докум</text>
        <text x="61.000000" y="290.930517" style="text-align:start;text-anchor:start" font-family="GOST type A" font-size="3.760087" font-style="italic" fill="black">Подп.</text>
        <text x="76.000000" y="290.930517" style="text-align:start;text-anchor:start" font-family="GOST type A" font-size="3.760087" font-style="italic" fill="black">Дата</text>
        <text x="200.000000" y="281.930517" style="text-align:center;text-anchor:middle" font-family="GOST type A" font-size="3.760087" font-style="italic" fill="black">Лист</text>
        <text x="140.000000" y="287.361034" style="text-align:center;text-anchor:middle" font-family="GOST type A" font-size="7.520175" font-style="italic" fill="black">КП-09.03.01-2021 ПЗ</text>
        <text x="200.000000" y="289.430517" style="text-align:center;text-anchor:middle" font-family="GOST type A" font-size="3.760087" font-style="italic" fill="black">16</text>
    </g>
    <g>
        <rect x="8.000000" y="147.000000" width="12.000000" height="145.000000" fill="none" stroke="black" stroke-width="0.8" />
        <line x1="8.000000" y1="182.000000" x2="20.000000" y2="182.000000" stroke="black" stroke-width="0.8" />
        <line x1="8.000000" y1="207.000000" x2="20.000000" y2="207.000000" stroke="black" stroke-width="0.8" />
        <line x1="8.000000" y1="232.000000" x2="20.000000" y2="232.000000" stroke="black" stroke-width="0.8" />
        <line x1="8.000000" y1="267.000000" x2="20.000000" y2="267.000000" stroke="black" stroke-width="0.8" />
        <line x1="13.000000" y1="147.000000" x2="13.000000" y2="292.000000" stroke="black" stroke-width="0.8" />
        <text x="-291.000000" y="11.930517" style="text-align:start;text-anchor:start" font-family="GOST type A" font-size="3.760087" font-style="italic" fill="black" transform="rotate(-90,0.000000,0.000000)">Инв. № подл.</text>
        <text x="-266.000000" y="11.930517" style="text-align:start;text-anchor:start" font-family="GOST type A" font-size="3.760087" font-style="italic" fill="black" transform="rotate(-90,0.000000,0.000000)">Подп. и дата</text>
        <text x="-231.000000" y="11.930517" style="text-align:start;text-anchor:start" font-family="GOST type A" font-size="3.760087" font-style="italic" fill="black" transform="rotate(-90,0.000000,0.000000)">Взам. инв. №</text>
        <text x="-206.000000" y="11.930517" style="text-align:start;text-anchor:start" font-family="GOST type A" font-size="3.760087" font-style="italic" fill="black" transform="rotate(-90,0.000000,0.000000)">Инв. № дубл.</text>
        <text x="-181.000000" y="11.930517" style="text-align:start;text-anchor:start" font-family="GOST type A" font-size="3.760087" font-style="italic" fill="black" transform="rotate(-90,0.000000,0.000000)">Подп. и дата</text>
    </g>
</svg>
