/*
** Объявления множеств
*/
# Множество номеров каналов
set ch := 1..3;

/*
** Объявления параметров
*/
# Минимальный трафик
param T;
# Бюджет
param B;
# Минимальная надежность
param Rmin;
# Максимальный трафик каналов
param t{ch};
# Стоимость передачи по каналам (одномерный массив, индексами выступают номера каналов ch)
param c{ch};
# Надежность каналов
param r{ch};

/*
** Объявления переменных
*/
# Трафик по каналам (одномерный массив), неотрицательный
var x{ch} >= 0;

/*
** Объявление целевой функции
*/
# Минимизировать стоимость
minimize total_cost: sum{i in ch} c[i] * x[i];
# Максимизировать трафик
#maximize traffic: sum{i in ch} x[i];

/*
** Задание ограничений
*/
# Максимальный трафик
s.t. maxt{i in ch} : x[i] <= t[i];
# Бюджет
s.t. maxc: sum{i in ch} c[i] * x[i] <= B;
# Минимальный трафик
s.t. mint: sum{i in ch} x[i] >= T;
# Надежность
s.t. minr: (x[1]*r[1] + x[2]*r[2] + x[3]*r[3]) >= Rmin * (x[1] + x[2] + x[3]);

solve;

# Вывод общей надежности
printf: "R = %f\n", (x[1]*r[1] + x[2]*r[2] + x[3]*r[3]) / (x[1] + x[2] + x[3]);

/*
** Область данных
*/
data;
param T := 1296;
param B := 26792;
param Rmin := 0.675227;
param t := 1 2545, 2 315, 3 2897;
param c := 1 9.42, 2 4.49, 3 5.68;
param r := 1 0.82, 2 0.87, 3 0.22;
# Конец модели
end;
