12
14
18
31
32
36
45
45
56
60
80
81
83
108
114
129
149
165
177
179
193
200
208
218
238
238
242
262
265
297
302
311
311
313
313
313
318
331
336
341
343
361
388
390
416
435
437
461
471
491
497
512
512
517
553
556
559
567
579
579
582
591
591
596
599
612
612
614
618
656
668
673
681
682
686
697
706
717
730
734
737
737
739
773
789
797
809
816
817
828
862
867
873
881
895
898
898
910
911
934
981
1002
1008
1011
1013
1033
1050
1051
1072
1088
1117
1129
1131
1146
1162
1165
1169
1172
1184
1193
1196
1211
1220
1221
1243
1259
1262
1271
1272
1276
1285
1286
1297
1299
1313
1313
1320
1327
1332
1364
1367
1385
1407
1422
1424
1431
1433
1436
1438
1440
1454
1462
1530
1553
1556
1564
1582
1587
1591
1611
1612
1620
1622
1625
1635
1647
1674
1695
1704
1707
1712
1715
1752
1784
1799
1805
1817
1839
1839
1847
1863
1864
1871
1880
1890
1891
1905
1937
1946
1946
1947
1971
1976
1985
1986
1993
1998
2002
2004
2008
2020
2020
2027
2039
2052
2059
2062
2070
2070
2077
2082
2097
2100
2100
2106
2107
2110
2129
2133
2136
2139
2142
2143
2143
2144
2150
2179
2212
2214
2217
2220
2221
2223
2244
2248
2265
2269
2276
2281
2290
2295
2307
2315
2329
2337
2345
2359
2360
2364
2369
2377
2397
2408
2415
2439
2439
2445
2454
2476
2478
2482
2488
2503
2503
2525
2527
2531
2535
2547
2568
2588
2593
2614
2628
2635
2661
2665
2672
2685
2692
2711
2712
2719
2724
2730
2733
2736
2742
2743
2763
2776
2793
2803
2808
2812
2818
2821
2824
2830
2834
2870
2880
2885
2906
2906
2912
2912
2929
2932
2964
2989
3006
3012
3014
3023
3033
3050
3069
3071
3074
3081
3087
3088
3095
3110
3167
3168
3174
3174
3176
3176
3189
3194
3199
3236
3249
3265
3266
3280
3285
3295
3304
3333
3347
3347
3349
3358
3372
3398
3399
3403
3404
3418
3419
3434
3445
3467
3476
3492
3499
3500
3504
3506
3526
3527
3529
3533
3539
3542
3545
3556
3587
3593
3594
3605
3609
3620
3625
3639
3653
3658
3670
3673
3697
3705
3708
3741
3747
3748
3764
3782
3785
3786
3808
3827
3836
3862
3864
3868
3875
3900
3925
3944
3970
3986
4005
4010
4011
4020
4039
4060
4071
4073
4077
4083
4088
4097
4159
4160
4160
4167
4203
4207
4214
4215
4215
4235
4246
4254
4258
4261
4271
4275
4304
4320
4325
4345
4348
4361
4377
4383
4396
4410
4429
4435
4461
4464
4469
4475
4478
4501
4524
4526
4545
4553
4605
4622
4634
4643
4648
4672
4712
4722
4724
4728
4746
4753
4756
4763
4773
4789
4789
4798
4802
4819
4836
4838
4840
4853
4855
4880
4880
4891
4899
4908
4926
4936
4947
4953
4969
4974
4980
4986
4993
5006
5006
5015
5028
5041
5050
5061
5061
5081
5083
5088
5088
5106
5114
5129
5130
5131
5134
5158
5164
5179
5205
5225
5227
5234
5241
5256
5262
5277
5280
5300
5320
5361
5400
5403
5406
5422
5422
5424
5429
5448
5452
5475
5488
5496
5503
5509
5526
5554
5563
5587
5597
5601
5604
5606
5615
5617
5623
5623
5624
5625
5640
5642
5650
5655
5659
5683
5686
5688
5709
5724
5738
5739
5756
5778
5779
5809
5818
5838
5853
5860
5880
5883
5893
5899
5923
5931
5946
5959
5981
5996
6001
6005
6007
6090
6092
6096
6100
6108
6119
6121
6121
6136
6139
6150
6153
6169
6170
6174
6174
6178
6197
6198
6204
6214
6253
6258
6262
6272
6272
6274
6293
6310
6318
6329
6337
6355
6356
6362
6370
6392
6396
6407
6422
6426
6429
6432
6440
6452
6456
6509
6523
6528
6563
6569
6582
6582
6589
6592
6615
6618
6628
6633
6636
6651
6653
6654
6665
6706
6712
6741
6765
6773
6808
6819
6822
6834
6844
6850
6853
6862
6863
6866
6875
6902
6913
6917
6943
6943
6948
6956
6957
6958
6986
6991
7009
7021
7035
7036
7045
7063
7072
7088
7108
7124
7125
7125
7135
7145
7167
7175
7179
7199
7221
7233
7240
7240
7266
7271
7278
7351
7371
7378
7386
7392
7396
7397
7408
7420
7421
7423
7424
7450
7462
7473
7489
7504
7511
7521
7535
7546
7580
7582
7602
7605
7610
7629
7640
7655
7664
7666
7671
7676
7693
7702
7706
7712
7723
7738
7742
7754
7771
7787
7787
7799
7803
7843
7861
7873
7878
7903
7907
7909
7918
7918
7921
7924
7940
7959
7965
7977
7984
7985
7988
8006
8015
8016
8017
8020
8033
8045
8057
8069
8071
8076
8078
8084
8098
8109
8118
8119
8123
8168
8176
8189
8195
8203
8204
8231
8259
8260
8261
8290
8295
8317
8329
8338
8351
8354
8359
8360
8360
8362
8368
8369
8370
8388
8403
8412
8415
8417
8421
8423
8426
8430
8466
8495
8496
8507
8508
8557
8563
8567
8598
8606
8614
8614
8615
8624
8624
8624
8625
8635
8639
8646
8653
8667
8672
8673
8675
8684
8696
8702
8710
8735
8746
8749
8766
8777
8781
8781
8798
8799
8800
8801
8805
8805
8834
8853
8855
8859
8884
8885
8902
8917
8933
8949
8951
8952
8963
8967
8970
8978
8986
8988
8999
8999
9015
9016
9030
9031
9035
9053
9061
9082
9083
9086
9101
9108
9113
9125
9126
9145
9150
9155
9159
9159
9168
9193
9194
9195
9199
9206
9211
9217
9218
9222
9225
9227
9230
9234
9241
9253
9296
9297
9302
9316
9329
9333
9335
9343
9350
9355
9356
9357
9362
9364
9369
9401
9410
9432
9435
9450
9456
9465
9469
9470
9470
9497
9498
9499
9504
9509
9511
9541
9550
9551
9553
9556
9556
9563
9575
9579
9592
9602
9609
9615
9624
9624
9627
9653
9660
9666
9670
9683
9689
9696
9696
9698
9716
9725
9739
9752
9786
9786
9792
9847
9886
9907
9916
9922
9924
9939
9943
9952
9954
9964
9964
9971
9974
9975
9979
9984
9987
9994
9994
