variant = 37
T[1] = 911
T[2] = 2840
T[3] = 1745
T = 3860
c[1] = 3.19
c[2] = 2.37
c[3] = 8.93
B = 14390
question = MAXIMIZE_TRAFFIC
x[1] = 911
x[2] = 2840
x[3] = 532.263157903772
objective = 4283.26315784929