 lib=C:\Cadence\SPB_17.2\tools\PSpice\Library\dig_io.lib, offset=9827, size=143
 lib=C:\Cadence\SPB_17.2\tools\PSpice\Library\74als.lib, offset=12309, size=262
 lib=C:\Cadence\SPB_17.2\tools\PSpice\Library\74als.lib, offset=2252, size=197
 lib=C:\Cadence\SPB_17.2\tools\PSpice\Library\74als.lib, offset=3155, size=202
 lib=C:\Cadence\SPB_17.2\tools\PSpice\Library\74als.lib, offset=369, size=205
 lib=C:\Cadence\SPB_17.2\tools\PSpice\Library\74als.lib, offset=4089, size=209
 lib=C:\Cadence\SPB_17.2\tools\PSpice\Library\74als.lib, offset=22494, size=2338
 lib=C:\Cadence\SPB_17.2\tools\PSpice\Library\74als.lib, offset=35700, size=2595
 lib=C:\Cadence\SPB_17.2\tools\PSpice\Library\74ls.lib, offset=162720, size=2919
 lib=C:\Cadence\SPB_17.2\tools\PSpice\Library\74als.lib, offset=12572, size=413
 lib=C:\Cadence\SPB_17.2\tools\PSpice\Library\74als.lib, offset=2450, size=240
 lib=C:\Cadence\SPB_17.2\tools\PSpice\Library\74als.lib, offset=3358, size=289
 lib=C:\Cadence\SPB_17.2\tools\PSpice\Library\74als.lib, offset=575, size=288
 lib=C:\Cadence\SPB_17.2\tools\PSpice\Library\74als.lib, offset=4299, size=239
 lib=C:\Cadence\SPB_17.2\tools\PSpice\Library\dig_io.lib, offset=47403, size=403
 lib=C:\Cadence\SPB_17.2\tools\PSpice\Library\dig_io.lib, offset=12017, size=116
 lib=C:\Cadence\SPB_17.2\tools\PSpice\Library\dig_io.lib, offset=95086, size=363
 lib=C:\Cadence\SPB_17.2\tools\PSpice\Library\dig_io.lib, offset=12266, size=116
 lib=C:\Cadence\SPB_17.2\tools\PSpice\Library\dig_io.lib, offset=51394, size=333
 lib=C:\Cadence\SPB_17.2\tools\PSpice\Library\dig_io.lib, offset=96787, size=225
 lib=C:\Cadence\SPB_17.2\tools\PSpice\Library\dig_io.lib, offset=10217, size=258
 lib=C:\Cadence\SPB_17.2\tools\PSpice\Library\dig_io.lib, offset=7572, size=259
 lib=C:\Cadence\SPB_17.2\tools\PSpice\Library\dig_io.lib, offset=106998, size=60
 lib=C:\Cadence\SPB_17.2\tools\PSpice\Library\dig_io.lib, offset=106835, size=50
 lib=C:\Cadence\SPB_17.2\tools\PSpice\Library\dig_io.lib, offset=106886, size=57
 lib=C:\Cadence\SPB_17.2\tools\PSpice\Library\dig_io.lib, offset=11016, size=366
 lib=C:\Cadence\SPB_17.2\tools\PSpice\Library\dig_io.lib, offset=54478, size=313
 lib=C:\Cadence\SPB_17.2\tools\PSpice\Library\dig_io.lib, offset=100102, size=308
 lib=C:\Cadence\SPB_17.2\tools\PSpice\Library\dig_io.lib, offset=97399, size=595
